C:\Users\espin\Documents\NetBeansProjects\CalculadoraInteres\src\main\java\controlador\Procesar.java
C:\Users\espin\Documents\NetBeansProjects\CalculadoraInteres\src\main\java\com\mycompany\calculadorainteres\JAXRSConfiguration.java
C:\Users\espin\Documents\NetBeansProjects\CalculadoraInteres\src\main\java\com\mycompany\calculadorainteres\resources\JavaEE8Resource.java
